%YAML 1.1
%TAG !u! tag:unity3d.com,2011:
--- !u!114 &11400000
MonoBehaviour:
  m_ObjectHideFlags: 0
  m_CorrespondingSourceObject: {fileID: 0}
  m_PrefabInstance: {fileID: 0}
  m_PrefabAsset: {fileID: 0}
  m_GameObject: {fileID: 0}
  m_Enabled: 1
  m_EditorHideFlags: 0
  m_Script: {fileID: 11500000, guid: b86b34f7fc0b6d54687930bc3cab900f, type: 3}
  m_Name: "\uB9DB\uC788\uB294 \uBC14\uB098\uB098\uB294_\uBCF4\uC0C1"
  m_EditorClassIdentifier: 
  fame: 0
  money: 0
  placeType: Add
  place: 3
  time: 0
