%YAML 1.1
%TAG !u! tag:unity3d.com,2011:
--- !u!114 &11400000
MonoBehaviour:
  m_ObjectHideFlags: 0
  m_CorrespondingSourceObject: {fileID: 0}
  m_PrefabInstance: {fileID: 0}
  m_PrefabAsset: {fileID: 0}
  m_GameObject: {fileID: 0}
  m_Enabled: 1
  m_EditorHideFlags: 0
  m_Script: {fileID: 11500000, guid: 305f071ed249ac945bf4e5512e071e1d, type: 3}
  m_Name: "\uAC8C\uC784 \uB05D \uC9C1\uD589 \uD0DD\uC2DC"
  m_EditorClassIdentifier: 
  type: Select
  title: "\uAC8C\uC784 \uB05D \uC9C1\uD589 \uD0DD\uC2DC"
  description: "\uAC8C\uC784\uC744 \uBC14\uB85C \uB05D\uB0B4\uB4DC\uB9AC\uB294 \uAC8C\uC784
    \uB05D \uC9C1\uD589 \uD0DD\uC2DC\uC785\uB2C8\uB2E4! \uB2E8\uB3C8 2\uCC9C\uC6D0\uC5D0
    \uACE8\uC778 \uC9C0\uC810\uAE4C\uC9C0 \uB3C4\uB2EC\uD558\uC2E4 \uC218 \uC788\uC2B5\uB2C8\uB2E4.
    \uBB3C\uB860 \uB3C8\uC774 \uC18C\uBAA8\uB41C \uB2E4\uC74C\uC5D0 \uACE8\uC778\uC774
    \uC778\uC815\uB418\uAE30 \uB54C\uBB38\uC5D0 \uD544\uC694\uD55C \uC561\uC218\uB97C
    \uCDA9\uC871\uD558\uC9C0 \uC54A\uC740 \uC0C1\uD0DC\uC5D0\uC11C \uD0D1\uC2B9\uD558\uC2DC\uBA74
    \uB418\uB824 \uC704\uD5D8\uD558\uC2E4 \uC218 \uC788\uC2B5\uB2C8\uB2E4. \uD0D1\uC2B9\uD558\uC2DC\uACA0\uC2B5\uB2C8\uAE4C?"
  rewards: {fileID: 11400000, guid: a16606acbee43c747be937044eee8070, type: 2}
  penalty: {fileID: 0}
  anwser: 
