%YAML 1.1
%TAG !u! tag:unity3d.com,2011:
--- !u!114 &11400000
MonoBehaviour:
  m_ObjectHideFlags: 0
  m_CorrespondingSourceObject: {fileID: 0}
  m_PrefabInstance: {fileID: 0}
  m_PrefabAsset: {fileID: 0}
  m_GameObject: {fileID: 0}
  m_Enabled: 1
  m_EditorHideFlags: 0
  m_Script: {fileID: 11500000, guid: 305f071ed249ac945bf4e5512e071e1d, type: 3}
  m_Name: "\uAE38\uC744 \uC798\uBABB \uB4E4\uC5C8\uB2E4"
  m_EditorClassIdentifier: 
  type: Story
  title: "\uAE38\uC744 \uC798\uBABB \uB4E4\uC5C8\uB2E4"
  description: "\uAE38\uC744 \uC798\uBABB \uB4E4\uC5C8\uB2E4. 39\uBC88 \uBE14\uB7ED\uC73C\uB85C
    \uB3CC\uC544\uAC00\uC11C \uB2E4\uC2DC \uC0DD\uAC01\uD574\uBCF4\uC790."
  rewards: {fileID: 11400000, guid: 2c92cf9b264ef57429ddb44ee394a906, type: 2}
  penalty: {fileID: 0}
  anwser: 
