%YAML 1.1
%TAG !u! tag:unity3d.com,2011:
--- !u!114 &11400000
MonoBehaviour:
  m_ObjectHideFlags: 0
  m_CorrespondingSourceObject: {fileID: 0}
  m_PrefabInstance: {fileID: 0}
  m_PrefabAsset: {fileID: 0}
  m_GameObject: {fileID: 0}
  m_Enabled: 1
  m_EditorHideFlags: 0
  m_Script: {fileID: 11500000, guid: 305f071ed249ac945bf4e5512e071e1d, type: 3}
  m_Name: "\uC544\uC8FC \uB098\uC05C \uC0AC\uB78C"
  m_EditorClassIdentifier: 
  type: Quiz
  title: "\uC544\uC8FC \uB098\uC05C \uC0AC\uB78C"
  description: "\uD5E4\uD5E4\uD5E4 \uAF2C\uB9C8\uC57C. \uB098\uB294 \uC544\uC8FC
    \uB098\uC05C \uC0AC\uB78C\uC774\uB780\uB2E4. \uB0B4\uAC00 \uB0B4\uB294 \uBB38\uC81C\uB97C
    \uB9DE\uCD94\uC9C0 \uBABB\uD55C\uB2E4\uBA74 \uB098\uB294 \uB108\uC5D0\uAC8C\uC11C
    \uB3C8\uACFC \uBA85\uC608, \uC2DC\uAC04\uC744 \uAC00\uC838\uAC00\uACE0 \uB108\uB97C
    10\uCE78 \uB4A4\uB85C \uBCF4\uB0BC\uAC70\uB780\uB2E4. \uC790 \uAC01\uC624\uD558\uACE0
    \uB098\uC758 \uBB38\uC81C\uB97C \uD480\uC5B4\uBCF4\uAC70\uB77C!\n\n\uD559\uB144\uC5D0
    \uCD1D 117\uBA85\uC758 \uD559\uC0DD\uC774 \uC788\uB2E4. \uD559\uC0DD 10\uBA85\uB2F9
    \uC778\uC194 \uAD50\uC0AC\uB294 1\uBA85\uC529 \uCD94\uAC00 \uB41C\uB2E4\uACE0
    \uD558\uC600\uC744 \uB54C, \uC774\uB4E4\uC774 \uC218\uD559\uC5EC\uD589\uC5D0
    \uBAA8\uB450 \uCC38\uC5EC\uD558\uAE30 \uC704\uD574\uC11C\uB294 45\uC778\uC2B9
    \uBC84\uC2A4\uB97C \uBA87 \uB300 \uBE4C\uB824\uC57C \uD558\uB294\uAC00?"
  rewards: {fileID: 0}
  penalty: {fileID: 11400000, guid: 4c2bd5600c3015741a1cdabc1b2ba39b, type: 2}
  anwser: 3
